lab5/ahbl_flash_ctrl_eb_cache_tb.vcd
$date
	Fri Oct 11 11:18:07 2024
$end
$version
	Icarus Verilog
$end
$timescale
	10ps
$end
$scope module ahbl_flash_ctrl_eb_cache_tb $end
$var wire 1 ! HREADY $end
$var wire 4 " SIO [3:0] $end
$var wire 4 # di [3:0] $end
$var wire 4 $ do [3:0] $end
$var wire 1 % sck $end
$var wire 4 & doe [3:0] $end
$var wire 1 ' csn $end
$var wire 1 ( HREADYOUT $end
$var wire 32 ) HRDATA [31:0] $end
$var reg 32 * HADDR [31:0] $end
$var reg 1 + HCLK $end
$var reg 1 , HRESETn $end
$var reg 3 - HSIZE [2:0] $end
$var reg 2 . HTRANS [1:0] $end
$var reg 1 / HWRITE $end
$scope module FLASH $end
$var wire 1 0 HOLDb $end
$var wire 4 1 SIO [3:0] $end
$var wire 1 2 read_dual_io_flag $end
$var wire 1 3 read_slow_flag $end
$var wire 4 4 Tds_inhibit [3:0] $end
$var wire 1 % SCK $end
$var wire 1 ' CEb $end
$var parameter 80 5 CellType $end
$var real 1 6 Fclk $end
$var real 1 7 Fclk_dual_io $end
$var real 1 8 Fclk_slow $end
$var parameter 32 9 MASK_ERRORS $end
$var parameter 32 : Tceh $end
$var parameter 32 ; Tces $end
$var parameter 32 < Tchh $end
$var parameter 32 = Tchs $end
$var real 1 > Tcph $end
$var parameter 32 ? Tdh $end
$var parameter 32 @ Tds $end
$var real 1 A Thhh $end
$var real 1 B Thhs $end
$var real 1 C Thls $end
$var real 1 D Tsckh $end
$var real 1 E Tsckh_dual_io $end
$var real 1 F Tsckh_slow $end
$var real 1 G Tsckl $end
$var real 1 H Tsckl_dual_io $end
$var real 1 I Tsckl_slow $end
$var reg 32 J error_cnt [31:0] $end
$var reg 1 K notifer_Tsckh $end
$var reg 1 L notifer_Tsckl $end
$var reg 1 M notifier_Fclk $end
$var reg 1 N notifier_Tceh $end
$var reg 1 O notifier_Tces $end
$var reg 1 P notifier_Tchh $end
$var reg 1 Q notifier_Tchs $end
$var reg 1 R notifier_Tcph $end
$var reg 1 S notifier_Tds $end
$var reg 1 T notifier_Thhh $end
$var reg 1 U notifier_Thhs $end
$var reg 1 V notifier_Thls $end
$scope module I0 $end
$var event 1 W reset $end
$var event 1 X SQI_HS_READ_trg $end
$var event 1 Y SPI_nVWLDR_trg $end
$var event 1 Z SPI_WRSU_trg $end
$var event 1 [ SPI_WRSR_trg $end
$var event 1 \ SPI_WRRE_trg $end
$var event 1 ] SPI_WBPR_trg $end
$var event 1 ^ SPI_ULBPR_trg $end
$var event 1 _ SPI_SFDP_trg $end
$var event 1 ` SPI_SE_trg $end
$var event 1 a SPI_SDOR_trg $end
$var event 1 b SPI_SDIOR_trg $end
$var event 1 c SPI_SB_trg $end
$var event 1 d SPI_RSID_trg $end
$var event 1 e SPI_READ_trg $end
$var event 1 f SPI_RDSR_trg $end
$var event 1 g SPI_RDCR_trg $end
$var event 1 h SPI_RBSPI_trg $end
$var event 1 i SPI_RBPR_trg $end
$var event 1 j SPI_QUAD_READ_trg $end
$var event 1 k SPI_QUAD_PP_trg $end
$var event 1 l SPI_QUAD_IO_READ_trg $end
$var event 1 m SPI_PSID_trg $end
$var event 1 n SPI_PP_trg $end
$var event 1 o SPI_LSID_trg $end
$var event 1 p SPI_LBPR_trg $end
$var event 1 q SPI_JEDEC_ID_trg $end
$var event 1 r SPI_EQIO_trg $end
$var event 1 s SPI_DPD_RST_trg $end
$var event 1 t SPI_CE_trg $end
$var event 1 u SPI_BE_trg $end
$var wire 1 v BPNV $end
$var wire 1 w BUSY $end
$var wire 1 x HOLDb $end
$var wire 1 y HOLDb_IO $end
$var wire 4 z SIO [3:0] $end
$var wire 32 { protect_or [31:0] $end
$var wire 1 | suspend_act $end
$var wire 1 } write_protect $end
$var wire 8 ~ status [7:0] $end
$var wire 8 !" config_reg [7:0] $end
$var wire 1 "" WPb $end
$var wire 1 #" WBPR_protection_lck $end
$var wire 1 % SCK $end
$var wire 1 $" CONFIG_protection_lck $end
$var wire 1 ' CEb $end
$var parameter 32 %" ADDR_MSB $end
$var parameter 32 &" AF_MSB $end
$var parameter 32 '" Block08k_MSB $end
$var parameter 32 (" Block32k_MSB $end
$var parameter 32 )" Block64k_MSB $end
$var parameter 64 *" Block_08k $end
$var parameter 64 +" Block_32k $end
$var parameter 64 ," Block_64k $end
$var parameter 8 -" Burst16 $end
$var parameter 32 ." Burst16_MSB $end
$var parameter 8 /" Burst32 $end
$var parameter 32 0" Burst32_MSB $end
$var parameter 8 1" Burst64 $end
$var parameter 32 2" Burst64_MSB $end
$var parameter 8 3" Burst8 $end
$var parameter 32 4" Burst8_MSB $end
$var parameter 1 5" False $end
$var parameter 32 6" ID_MSB $end
$var parameter 1 7" INIT_WPEN $end
$var parameter 32 8" Kilo $end
$var parameter 32 9" Ksize $end
$var parameter 8 :" MANUFACTURE $end
$var parameter 64 ;" Mega $end
$var parameter 8 <" Memory_Capacity $end
$var parameter 8 =" Memory_Type $end
$var parameter 97 >" Memsize $end
$var parameter 32 ?" Msize $end
$var parameter 98 @" PROTECT_REG_MSB $end
$var parameter 32 A" Program_Page_Size $end
$var parameter 32 B" S016B $end
$var parameter 32 C" S032B $end
$var parameter 32 D" S040B $end
$var parameter 32 E" S080B $end
$var parameter 1 F" SECURITY_LOCKOUT_VALUE $end
$var parameter 8 G" SPI_BE $end
$var parameter 8 H" SPI_CE $end
$var parameter 8 I" SPI_DPD $end
$var parameter 8 J" SPI_DPD_RST $end
$var parameter 8 K" SPI_EQIO $end
$var parameter 8 L" SPI_HS_READ $end
$var parameter 8 M" SPI_JEDEC_ID $end
$var parameter 8 N" SPI_LBPR $end
$var parameter 8 O" SPI_LSID $end
$var parameter 8 P" SPI_NOP $end
$var parameter 8 Q" SPI_PP $end
$var parameter 8 R" SPI_PSID $end
$var parameter 8 S" SPI_QUAD_IO_READ $end
$var parameter 8 T" SPI_QUAD_PP $end
$var parameter 8 U" SPI_QUAD_READ $end
$var parameter 8 V" SPI_RBPR $end
$var parameter 8 W" SPI_RBSPI $end
$var parameter 8 X" SPI_RDCR $end
$var parameter 8 Y" SPI_RDSR $end
$var parameter 8 Z" SPI_READ $end
$var parameter 8 [" SPI_RSID $end
$var parameter 8 \" SPI_RST $end
$var parameter 8 ]" SPI_RSTEN $end
$var parameter 8 ^" SPI_RSTQIO $end
$var parameter 8 _" SPI_SB $end
$var parameter 8 `" SPI_SDIOR $end
$var parameter 8 a" SPI_SDOR $end
$var parameter 8 b" SPI_SE $end
$var parameter 8 c" SPI_SFDP $end
$var parameter 8 d" SPI_ULBPR $end
$var parameter 8 e" SPI_WBPR $end
$var parameter 8 f" SPI_WRDI $end
$var parameter 8 g" SPI_WREN $end
$var parameter 8 h" SPI_WRRE $end
$var parameter 8 i" SPI_WRSR $end
$var parameter 8 j" SPI_WRSU $end
$var parameter 8 k" SPI_nVWLDR $end
$var parameter 8 l" SQI_BE $end
$var parameter 8 m" SQI_CE $end
$var parameter 8 n" SQI_DPD $end
$var parameter 8 o" SQI_DPD_RST $end
$var parameter 8 p" SQI_HS_READ $end
$var parameter 8 q" SQI_J_ID $end
$var parameter 8 r" SQI_LBPR $end
$var parameter 8 s" SQI_LSID $end
$var parameter 8 t" SQI_NOP $end
$var parameter 8 u" SQI_PP $end
$var parameter 8 v" SQI_PSID $end
$var parameter 8 w" SQI_RBPR $end
$var parameter 8 x" SQI_RBSQI $end
$var parameter 8 y" SQI_RDCR $end
$var parameter 8 z" SQI_RDSR $end
$var parameter 8 {" SQI_RSID $end
$var parameter 8 |" SQI_RST $end
$var parameter 8 }" SQI_RSTEN $end
$var parameter 8 ~" SQI_RSTQIO $end
$var parameter 8 !# SQI_SB $end
$var parameter 8 "# SQI_SE $end
$var parameter 8 ## SQI_ULBPR $end
$var parameter 8 $# SQI_WBPR $end
$var parameter 8 %# SQI_WRDI $end
$var parameter 8 &# SQI_WREN $end
$var parameter 8 '# SQI_WRRE $end
$var parameter 8 (# SQI_WRSR $end
$var parameter 8 )# SQI_WRSU $end
$var parameter 8 *# SQI_nVWLDR $end
$var parameter 32 +# SST_SEC_ID_LSB $end
$var parameter 32 ,# Sector_MSB $end
$var parameter 64 -# Sector_Size $end
$var parameter 32 .# Tbe $end
$var real 1 /# Tchz $end
$var parameter 32 0# Tclz $end
$var real 1 1# Thz $end
$var real 1 2# Tlz $end
$var parameter 32 3# Tpp $end
$var parameter 32 4# Tpsid $end
$var parameter 32 5# Tre $end
$var parameter 32 6# Trp $end
$var parameter 1 7# True $end
$var parameter 32 8# Tsbr $end
$var parameter 32 9# Tsce $end
$var parameter 32 :# Tse $end
$var parameter 32 ;# Tv $end
$var parameter 32 <# Tws $end
$var parameter 32 =# WLLD_value $end
$var reg 1 ># BE_flag $end
$var reg 1 ?# CE_flag $end
$var reg 1 @# DPD $end
$var reg 1 A# EE $end
$var reg 1 B# IOC $end
$var reg 8 C# Mode_Configuration [7:0] $end
$var reg 1 D# PE $end
$var reg 1 E# RES $end
$var reg 1 F# RSTEN $end
$var reg 8 G# RSTQIO_cmd [7:0] $end
$var reg 1 H# SEC $end
$var reg 1 I# SE_flag $end
$var reg 4 J# SIO_IO [3:0] $end
$var reg 4 K# SIO_OUT [3:0] $end
$var reg 1 L# SPI_DPD_RST_RDID_active $end
$var reg 1 M# SPI_JEDEC_ID_active $end
$var reg 1 N# SPI_LSID_active $end
$var reg 1 O# SPI_PP_active $end
$var reg 1 P# SPI_PSID_active $end
$var reg 1 Q# SPI_PSID_ip $end
$var reg 1 R# SPI_QUAD_IO_READ_active $end
$var reg 1 S# SPI_QUAD_PP_active $end
$var reg 1 T# SPI_RBPR_active $end
$var reg 1 U# SPI_RBSPI_active $end
$var reg 1 V# SPI_RDCR_active $end
$var reg 1 W# SPI_RDSR_active $end
$var reg 1 X# SPI_READ_QUAD_active $end
$var reg 1 Y# SPI_READ_active $end
$var reg 1 Z# SPI_RSID_active $end
$var reg 1 [# SPI_SB_active $end
$var reg 1 \# SPI_SDIOR_active $end
$var reg 1 ]# SPI_SDOR_active $end
$var reg 1 ^# SPI_SFDP_active $end
$var reg 1 _# SPI_WBPR_active $end
$var reg 1 `# SPI_WRSR_PGM_active $end
$var reg 1 a# SPI_WRSR_active $end
$var reg 1 b# SPI_WRSU_active $end
$var reg 1 c# SPI_nVWLDR_active $end
$var reg 1 d# SPI_nVWLDR_cmd_active $end
$var reg 1 e# SQI_HS_READ_active $end
$var reg 1 f# SQI_PP_active $end
$var reg 1 g# SQI_SPI_mode $end
$var reg 1 h# WEL $end
$var reg 1 i# WPEN $end
$var reg 1 j# WPLD $end
$var reg 1 k# WSE $end
$var reg 1 l# WSP $end
$var reg 8 m# burst_length [7:0] $end
$var reg 1 n# clock $end
$var reg 1 o# clockx $end
$var reg 32 p# cnt [31:0] $end
$var reg 1 q# erase_active $end
$var reg 24 r# erase_addr [23:0] $end
$var reg 1 s# erase_ip $end
$var reg 32 t# erase_size [31:0] $end
$var reg 8 u# l_spi_cmd [7:0] $end
$var reg 8 v# l_sqi_cmd [7:0] $end
$var reg 1 w# page_program_active $end
$var reg 24 x# pgm_addr [23:0] $end
$var reg 16 y# pgm_id_addr [15:0] $end
$var reg 1 z# pgm_sus_reset $end
$var reg 32 {# protect [31:0] $end
$var reg 1 |# read_slow_flag $end
$var reg 24 }# resume_addr [23:0] $end
$var reg 32 ~# resume_size [31:0] $end
$var reg 1 !$ s_BE_flag $end
$var reg 1 "$ s_SE_flag $end
$var reg 8 #$ spi_cmd [7:0] $end
$var reg 8 $$ spi_count [7:0] $end
$var reg 8 %$ sqi_cmd [7:0] $end
$var reg 8 &$ sqi_count [7:0] $end
$var reg 24 '$ suspend_addr [23:0] $end
$var reg 32 ($ t_wlldr_mem [31:0] $end
$var reg 1 )$ valid_addr $end
$var reg 1 *$ valid_data $end
$var reg 32 +$ wlldr_mem [31:0] $end
$var reg 8 ,$ wsr_creg [7:0] $end
$var reg 8 -$ wsr_sreg [7:0] $end
$var real 1 .$ erase_time $end
$var real 1 /$ s_time_left $end
$var real 1 0$ start_erase $end
$var real 1 1$ time_left $end
$scope function Chip_proT $end
$var reg 24 2$ addr [23:0] $end
$var reg 1 3$ return_value $end
$upscope $end
$scope function ERASE_PGM $end
$var reg 25 4$ erase_address [24:0] $end
$var reg 24 5$ erase_address_in [23:0] $end
$var reg 25 6$ pgm_address [24:0] $end
$var reg 24 7$ pgm_address_in [23:0] $end
$var reg 1 8$ return_value $end
$upscope $end
$scope function PGM_ERASE $end
$var reg 25 9$ erase_address [24:0] $end
$var reg 24 :$ erase_address_in [23:0] $end
$var reg 25 ;$ pgm_address [24:0] $end
$var reg 24 <$ pgm_address_in [23:0] $end
$var reg 1 =$ return_value $end
$upscope $end
$scope function Read_proT $end
$var reg 24 >$ addr [23:0] $end
$var reg 1 ?$ return_value $end
$var reg 25 @$ taddr [24:0] $end
$upscope $end
$scope function Write_proT $end
$var reg 24 A$ addr [23:0] $end
$var reg 25 B$ address [24:0] $end
$var reg 8 C$ index [7:0] $end
$var reg 1 D$ return_value $end
$var reg 25 E$ taddr [24:0] $end
$upscope $end
$scope begin SPI_DPD_RST_RDID_label $end
$var reg 8 F$ data [7:0] $end
$upscope $end
$scope begin SPI_DPD_RST_label $end
$upscope $end
$scope begin SPI_JEDEC_ID_label $end
$var reg 8 G$ data [7:0] $end
$var reg 2 H$ ptr [1:0] $end
$upscope $end
$scope begin SPI_LSID_label $end
$upscope $end
$scope begin SPI_PP_label $end
$var reg 9 I$ pcount [8:0] $end
$var reg 8 J$ sdata [7:0] $end
$upscope $end
$scope begin SPI_PSID_label $end
$var reg 9 K$ pcount [8:0] $end
$var reg 8 L$ sdata [7:0] $end
$upscope $end
$scope begin SPI_QUAD_IO_READ_label $end
$var reg 24 M$ addr [23:0] $end
$var reg 8 N$ count [7:0] $end
$var reg 8 O$ data [7:0] $end
$upscope $end
$scope begin SPI_QUAD_PP_label $end
$var reg 9 P$ pcount [8:0] $end
$var reg 8 Q$ sdata [7:0] $end
$upscope $end
$scope begin SPI_QUAD_READ_label $end
$var reg 24 R$ addr [23:0] $end
$var reg 8 S$ data [7:0] $end
$upscope $end
$scope begin SPI_RBPR_label $end
$var reg 32 T$ tmp_protect [31:0] $end
$upscope $end
$scope begin SPI_RBSPI_label $end
$var reg 24 U$ addr [23:0] $end
$var reg 8 V$ data [7:0] $end
$upscope $end
$scope begin SPI_RDCR_label $end
$var reg 8 W$ data [7:0] $end
$upscope $end
$scope begin SPI_RDSR_label $end
$var reg 8 X$ data [7:0] $end
$upscope $end
$scope begin SPI_READ_label $end
$var reg 24 Y$ addr [23:0] $end
$var reg 8 Z$ data [7:0] $end
$upscope $end
$scope begin SPI_RSID_label $end
$var reg 16 [$ addr [15:0] $end
$var reg 8 \$ data [7:0] $end
$upscope $end
$scope begin SPI_SB_label $end
$var reg 8 ]$ bl [7:0] $end
$upscope $end
$scope begin SPI_SDIOR_label $end
$var reg 24 ^$ addr [23:0] $end
$var reg 8 _$ count [7:0] $end
$var reg 8 `$ data [7:0] $end
$upscope $end
$scope begin SPI_SDOR_label $end
$var reg 24 a$ addr [23:0] $end
$var reg 8 b$ data [7:0] $end
$upscope $end
$scope begin SPI_SFDP_label $end
$var reg 11 c$ addr [10:0] $end
$var reg 8 d$ data [7:0] $end
$upscope $end
$scope begin SPI_ULBPR_label $end
$var reg 8 e$ count [7:0] $end
$upscope $end
$scope begin SPI_WBPR_label $end
$var reg 9 f$ ncount [8:0] $end
$upscope $end
$scope begin SPI_WRRE_label $end
$var reg 9 g$ pcount [8:0] $end
$upscope $end
$scope begin SPI_WRSR_PGM $end
$upscope $end
$scope begin SPI_WRSR_label $end
$upscope $end
$scope begin SPI_WRSU_label $end
$var reg 9 h$ pcount [8:0] $end
$upscope $end
$scope begin SPI_nVWLDR_cmd_label $end
$var reg 9 i$ ncount [8:0] $end
$upscope $end
$scope begin SPI_nVWLDR_label $end
$var reg 8 j$ nn [7:0] $end
$upscope $end
$scope begin SQI_HS_READ_label $end
$var reg 24 k$ addr [23:0] $end
$var reg 8 l$ count [7:0] $end
$var reg 8 m$ data [7:0] $end
$upscope $end
$scope begin Sec_ID_pgm_label $end
$var reg 24 n$ nn [23:0] $end
$upscope $end
$scope begin erase_label $end
$var reg 32 o$ nn [31:0] $end
$upscope $end
$scope begin erase_setup_label $end
$upscope $end
$scope begin page_program_label $end
$var reg 24 p$ nn [23:0] $end
$upscope $end
$upscope $end
$scope task corrupt_all $end
$var reg 32 q$ nn [31:0] $end
$upscope $end
$upscope $end
$scope module duv $end
$var wire 32 r$ HADDR [31:0] $end
$var wire 1 + HCLK $end
$var wire 1 ! HREADY $end
$var wire 1 , HRESETn $end
$var wire 1 s$ HSEL $end
$var wire 2 t$ HTRANS [1:0] $end
$var wire 1 / HWRITE $end
$var wire 4 u$ di [3:0] $end
$var wire 4 v$ do [3:0] $end
$var wire 1 w$ valid $end
$var wire 1 % sck $end
$var wire 1 x$ m_start $end
$var wire 1 y$ done $end
$var wire 4 z$ doe [3:0] $end
$var wire 1 ' csn $end
$var wire 1 {$ cpu_hit $end
$var wire 1 ( HREADYOUT $end
$var wire 32 |$ HRDATA [31:0] $end
$var wire 256 }$ D [255:0] $end
$var parameter 64 ~$ LW $end
$var parameter 32 !% NL $end
$var reg 1 ( hready $end
$var reg 32 "% last_HADDR [31:0] $end
$var reg 1 #% last_HSEL $end
$var reg 2 $% last_HTRANS [1:0] $end
$var reg 1 %% last_HWRITE $end
$var reg 1 &% last_valid $end
$var reg 1 '% start $end
$scope module cache $end
$var wire 1 (% ahit $end
$var wire 1 + clk $end
$var wire 32 )% cpu_aaddr [31:0] $end
$var wire 32 *% cpu_daddr [31:0] $end
$var wire 32 +% cpu_data [31:0] $end
$var wire 1 w$ cpu_rd $end
$var wire 256 ,% data [255:0] $end
$var wire 1 -% dhit $end
$var wire 1 x$ m_start $end
$var wire 1 , rst_n $end
$var wire 3 .% woff [2:0] $end
$var wire 22 /% tag [21:0] $end
$var wire 5 0% off [4:0] $end
$var wire 1 y$ m_done $end
$var wire 256 1% m_data [255:0] $end
$var wire 33 2% m_addr [32:0] $end
$var wire 5 3% line_no [4:0] $end
$var wire 5 4% dline_no [4:0] $end
$var wire 1 {$ cpu_hit $end
$var parameter 34 5% LFE $end
$var parameter 32 6% LFS $end
$var parameter 32 7% LFW $end
$var parameter 64 8% LW $end
$var parameter 64 9% LWB $end
$var parameter 32 :% NL $end
$var parameter 64 ;% NW $end
$var parameter 33 <% OFE $end
$var parameter 32 =% OFS $end
$var parameter 32 >% OFW $end
$var parameter 32 ?% TFE $end
$var parameter 33 @% TFS $end
$var parameter 34 A% TFW $end
$var integer 32 B% i [31:0] $end
$scope begin genblk1[0] $end
$var parameter 2 C% gi $end
$upscope $end
$scope begin genblk1[1] $end
$var parameter 2 D% gi $end
$upscope $end
$scope begin genblk1[2] $end
$var parameter 3 E% gi $end
$upscope $end
$scope begin genblk1[3] $end
$var parameter 3 F% gi $end
$upscope $end
$scope begin genblk1[4] $end
$var parameter 4 G% gi $end
$upscope $end
$scope begin genblk1[5] $end
$var parameter 4 H% gi $end
$upscope $end
$scope begin genblk1[6] $end
$var parameter 4 I% gi $end
$upscope $end
$scope begin genblk1[7] $end
$var parameter 4 J% gi $end
$upscope $end
$upscope $end
$scope module flash_ctrl $end
$var wire 24 K% A [23:0] $end
$var wire 256 L% D [255:0] $end
$var wire 1 + clk $end
$var wire 4 M% di [3:0] $end
$var wire 4 N% do [3:0] $end
$var wire 1 , rst_n $end
$var wire 1 % sck $end
$var wire 1 x$ start $end
$var wire 1 O% trans_off $end
$var wire 1 P% trans_on $end
$var wire 1 y$ done $end
$var wire 4 Q% doe [3:0] $end
$var wire 1 ' csn $end
$var wire 7 R% bit_cntr [6:0] $end
$var parameter 32 S% CNTRW $end
$var parameter 65 T% ENDCNT $end
$var parameter 64 U% LW $end
$var reg 8 V% cntr [7:0] $end
$var reg 1 ' csn_reg $end
$var reg 256 W% data [255:0] $end
$var reg 8 X% dbyte [7:0] $end
$var reg 4 Y% do_reg [3:0] $end
$var reg 1 Z% first $end
$var reg 1 [% run $end
$var reg 1 \% sck_reg $end
$upscope $end
$upscope $end
$scope task ahbl_read $end
$var reg 32 ]% addr [31:0] $end
$var reg 3 ^% size [2:0] $end
$upscope $end
$upscope $end
$enddefinitions $end
$comment Show the parameter values. $end
$dumpall
b100000000 U%
b11010000 T%
b1000 S%
b111 J%
b110 I%
b101 H%
b100 G%
b11 F%
b10 E%
b1 D%
b0 C%
b10110 A%
b1010 @%
b11111 ?%
b101 >%
b0 =%
b100 <%
b1000 ;%
b100000 :%
b100000 9%
b100000000 8%
b101 7%
b101 6%
b1001 5%
b100000 !%
b100000000 ~$
b0 =#
b10011100010000 <#
b101 ;#
b1011111010111100001000000 :#
b10111110101111000010000000 9#
b10011100010000 8#
17#
b11000011010100000 6#
b11110100001001000000 5#
b110000110101000000 4#
b101101110001101100000 3#
r7 2#
r7 1#
b0 0#
r12.5 /#
b1011111010111100001000000 .#
b1000000000000 -#
b1011 ,#
b11000 +#
b11101000 *#
b10110000 )#
b1 (#
b110000 '#
b110 &#
b100 %#
b1000010 $#
b10011000 ##
b100000 "#
b11000000 !#
b11111111 ~"
b1100110 }"
b10011001 |"
b10001000 {"
b101 z"
b110101 y"
b1100 x"
b1110010 w"
b10100101 v"
b10 u"
b0 t"
b10000101 s"
b10001101 r"
b10101111 q"
b1011 p"
b10101011 o"
b10111001 n"
b11000111 m"
b11011000 l"
b11101000 k"
b10110000 j"
b1 i"
b110000 h"
b110 g"
b100 f"
b1000010 e"
b10011000 d"
b1011010 c"
b100000 b"
b111011 a"
b10111011 `"
b11000000 _"
b11111111 ^"
b1100110 ]"
b10011001 \"
b10001000 ["
b11 Z"
b101 Y"
b110101 X"
b11101100 W"
b1110010 V"
b1101011 U"
b110010 T"
b11101011 S"
b10100101 R"
b10 Q"
b0 P"
b10000101 O"
b10001101 N"
b10011111 M"
b1011 L"
b111000 K"
b10101011 J"
b10111001 I"
b11000111 H"
b11011000 G"
0F"
b1 E"
b0 D"
b100 C"
b10 B"
b100000000 A"
b11111 @"
b1 ?"
b100000000000000000000 >"
b100110 ="
b1011000 <"
b100000000000000000000 ;"
b10111111 :"
b0 9"
b10000000000 8"
07"
b100 6"
05"
b10 4"
b0 3"
b101 2"
b11 1"
b100 0"
b10 /"
b11 ."
b1 -"
b10000000000000000 ,"
b1000000000000000 +"
b10000000000000 *"
b1111 )"
b1110 ("
b1100 '"
b10111 &"
b10011 %"
r11 I
r5.5 H
r4.5 G
r11 F
r5.5 E
r4.5 D
r5 C
r5 B
r5 A
b11 @
b100 ?
r12 >
b101 =
b101 <
b101 ;
b101 :
b111110100 9
r24.99 8
r12.49 7
r9.59 6
b1010011010100110101010000110010001101100101011101000110011110000111100001111000 5
$end
#0
$dumpvars
bx ^%
bx ]%
0\%
0[%
1Z%
b0 Y%
b0 X%
b0 W%
b0 V%
b0 R%
b1111 Q%
xP%
0O%
b0 N%
b0 M%
b0 L%
b0 K%
b100000 B%
b0 4%
bx 3%
b0xxxxxxxxxxxxxxxxxxxxxxxxxxxxxxxx 2%
b0 1%
b0 0%
b0 /%
b0 .%
0-%
bx ,%
bx +%
b0 *%
bx )%
x(%
0'%
0&%
0%%
b0 $%
0#%
b0 "%
b0 }$
bx |$
x{$
b1111 z$
0y$
xx$
xw$
b0 v$
b0 u$
bx t$
1s$
bx r$
bx q$
bx p$
bx o$
bx n$
bx m$
bx l$
bx k$
bx j$
bx i$
bx h$
bx g$
bx f$
bx e$
bx d$
bx c$
bx b$
bx a$
bx `$
bx _$
bx ^$
bx ]$
bx \$
bx [$
bx Z$
bx Y$
bx X$
bx W$
bx V$
bx U$
bx T$
bx S$
bx R$
bx Q$
bx P$
bx O$
bx N$
bx M$
bx L$
bx K$
bx J$
bx I$
bx H$
bx G$
bx F$
bx E$
xD$
bx C$
bx B$
bx A$
bx @$
x?$
bx >$
x=$
bx <$
bx ;$
bx :$
bx 9$
x8$
bx 7$
bx 6$
bx 5$
bx 4$
x3$
bx 2$
r0 1$
r0 0$
r0 /$
r0 .$
bx -$
bx ,$
b0 +$
0*$
0)$
bx ($
b0 '$
bx &$
b0 %$
b0 $$
b0 #$
0"$
0!$
bx ~#
b0 }#
0|#
b1010101010101011111111111111111 {#
0z#
bx y#
bx x#
0w#
b0 v#
b0 u#
bx t#
0s#
bx r#
0q#
b100000000000 p#
0o#
0n#
b0 m#
0l#
0k#
0j#
0i#
0h#
0g#
0f#
0e#
0d#
0c#
0b#
0a#
0`#
0_#
0^#
0]#
0\#
0[#
0Z#
0Y#
0X#
0W#
0V#
0U#
0T#
0S#
0R#
0Q#
0P#
0O#
0N#
0M#
xL#
b0 K#
bx J#
0I#
0H#
b0 G#
0F#
0E#
0D#
b11111111 C#
1B#
0A#
0@#
0?#
0>#
0$"
0#"
0""
b1010 !"
b0 ~
0}
0|
b1010101010101011111111111111111 {
b0 z
xy
1x
0w
1v
1u
1t
1s
1r
1q
1p
1o
1n
1m
1l
1k
1j
1i
1h
1g
1f
1e
1d
1c
1b
1a
1`
1_
1^
1]
1\
1[
1Z
1Y
1X
1W
xV
xU
xT
xS
xR
xQ
xP
xO
xN
xM
xL
xK
bx J
b1111 4
03
02
b0 1
10
x/
bx .
bx -
0,
0+
bx *
bx )
1(
1'
b1111 &
0%
b0 $
b0 #
b0 "
1!
$end
#700
1y
#1250
b0 J#
#500000000000
b100000 B%
1+
#1000000000000
0+
#1500000000000
b100000 B%
1+
#2000000000000
0+
#2500000000000
b100000 B%
1+
#3000000000000
0+
#3500000000000
b100000 B%
1+
#4000000000000
0+
#4500000000000
b100000 B%
1+
#5000000000000
0+
#5500000000000
b100000 B%
1+
#6000000000000
0+
#6500000000000
b100000 B%
1+
#7000000000000
0+
#7500000000000
b100000 B%
1+
#8000000000000
0+
#8500000000000
b100000 B%
1+
#9000000000000
0+
#9500000000000
b100000 B%
1+
#10000000000000
0+
#10500000000000
x-%
bx .%
bx K%
bx 4%
bx /%
bx 0%
x&%
bx $%
x%%
bx "%
bx *%
1#%
1,
1+
#11000000000000
0+
#11500000000000
1+
#12000000000000
0+
#12500000000000
1+
#13000000000000
0+
#13500000000000
1+
#14000000000000
0+
#14500000000000
1+
#15000000000000
0+
#15500000000000
1+
#16000000000000
0+
#16500000000000
1+
#17000000000000
0+
#17500000000000
1+
#18000000000000
0+
#18500000000000
1+
#19000000000000
0+
#19500000000000
1+
#20000000000000
0+
#20500000000000
1+
b10 ^%
b0 ]%
#20600000000000
1P%
1x$
0{$
0(%
1w$
b0 3%
b10 -
0/
b0 2%
b0 *
b0 r$
b0 )%
b10 .
b10 t$
#21000000000000
0+
#21500000000000
0-%
b0 .%
b0 4
b0 &$
b0 K%
b0 4%
b0 /%
b0 0%
1[%
0'
1&%
b0 $%
0%%
b0 "%
b0 *%
1'%
0!
0(
0P%
0x$
0{$
0w$
b0 .
b0 t$
1+
#22000000000000
0+
#22500000000000
b1 $$
1n#
1o#
0'%
1%
1\%
b1 V%
1+
#23000000000000
0+
#23500000000000
b1 #
b1 u$
b1 M%
b1 "
b1 1
b1 z
b1 $
b1 v$
b1 N%
b1 Y%
0n#
b1 R%
0o#
b10 V%
0%
0\%
1+
#24000000000000
0+
#24500000000000
b10 $$
b1 #$
1n#
1o#
1%
1\%
b11 V%
1+
#25000000000000
0+
#25500000000000
0n#
b10 R%
0o#
b100 V%
0%
0\%
1+
#26000000000000
0+
#26500000000000
b11 $$
b11 #$
1n#
1o#
1%
1\%
b101 V%
1+
#27000000000000
0+
#27500000000000
b0 #
b0 u$
b0 M%
b0 "
b0 1
b0 z
b0 $
b0 v$
b0 N%
b0 Y%
0n#
b11 R%
0o#
b110 V%
0%
0\%
1+
#28000000000000
0+
#28500000000000
b100 $$
b110 #$
1n#
1o#
1%
1\%
b111 V%
1+
#29000000000000
0+
#29500000000000
0n#
b100 R%
0o#
b1000 V%
0%
0\%
1+
#30000000000000
0+
#30500000000000
b101 $$
b1100 #$
1n#
1o#
1%
1\%
b1001 V%
1+
#31000000000000
0+
#31500000000000
b1 #
b1 u$
b1 M%
b1 "
b1 1
b1 z
b1 $
b1 v$
b1 N%
b1 Y%
0n#
b101 R%
0o#
b1010 V%
0%
0\%
1+
#32000000000000
0+
#32500000000000
b110 $$
b11001 #$
1n#
1o#
1%
1\%
b1011 V%
1+
#33000000000000
0+
#33500000000000
0n#
b110 R%
0o#
b1100 V%
0%
0\%
1+
#34000000000000
0+
#34500000000000
b111 $$
b110011 #$
1n#
1o#
1%
1\%
b1101 V%
1+
#35000000000000
0+
#35500000000000
b0 #
b0 u$
b0 M%
b0 "
b0 1
b0 z
b0 $
b0 v$
b0 N%
b0 Y%
0n#
b111 R%
0o#
b1110 V%
0%
0\%
1+
#36000000000000
0+
#36500000000000
b1000 $$
1F#
b1100110 u#
b1100110 #$
1n#
1o#
1%
1\%
b1111 V%
1+
#37000000000000
0+
#37500000000000
1O%
0n#
b1000 R%
0o#
b10000 V%
0%
0\%
1+
#38000000000000
0+
#38500000000000
b1111 4
b10001 V%
1'
1+
#39000000000000
0+
#39500000000000
0O%
b1001 R%
b10010 V%
1+
#40000000000000
0+
#40500000000000
1P%
b10011 V%
1+
#41000000000000
0+
#41500000000000
b1 #
b1 u$
b1 M%
b1 "
b1 1
b1 z
0P%
b1 $
b1 v$
b1 N%
b1 Y%
b0 4
b0 #$
b0 $$
b1010 R%
0'
b10100 V%
1+
#42000000000000
0+
#42500000000000
b1 $$
b1 #$
1n#
1o#
1%
1\%
b10101 V%
1+
#43000000000000
0+
